%YAML 1.1
%TAG !u! tag:unity3d.com,2011:
--- !u!74 &7400000
AnimationClip:
  m_ObjectHideFlags: 0
  m_PrefabParentObject: {fileID: 0}
  m_PrefabInternal: {fileID: 0}
  m_Name: DragonStrike
  serializedVersion: 6
  m_Legacy: 0
  m_Compressed: 0
  m_UseHighQualityCurve: 1
  m_RotationCurves: []
  m_CompressedRotationCurves: []
  m_EulerCurves: []
  m_PositionCurves: []
  m_ScaleCurves: []
  m_FloatCurves:
  - curve:
      serializedVersion: 2
      m_Curve:
      - serializedVersion: 2
        time: 0
        value: 1
        inSlope: Infinity
        outSlope: Infinity
        tangentMode: 103
      - serializedVersion: 2
        time: 1.5
        value: 0
        inSlope: Infinity
        outSlope: Infinity
        tangentMode: 103
      m_PreInfinity: 2
      m_PostInfinity: 2
      m_RotationOrder: 4
    attribute: m_IsActive
    path: sprite
    classID: 1
    script: {fileID: 0}
  m_PPtrCurves:
  - curve:
    - time: 0
      value: {fileID: 21300000, guid: 979c91934b7887e479e13497135899a5, type: 3}
    - time: 0.075
      value: {fileID: 21300000, guid: 2232ebb4e35465141aad30722c90dedd, type: 3}
    - time: 0.15
      value: {fileID: 21300000, guid: c1097698516e88d47a8967dc0df38da5, type: 3}
    - time: 0.225
      value: {fileID: 21300000, guid: be3a01cbe706b1849aa94006200c749e, type: 3}
    - time: 0.3
      value: {fileID: 21300000, guid: a8fcca3cdcc44144e9fd42c4d2abada1, type: 3}
    - time: 0.375
      value: {fileID: 21300000, guid: a12db6de49c37f44794c55543bec5b4c, type: 3}
    - time: 0.45
      value: {fileID: 21300000, guid: bcc37fbd996ecaa4a937b60478a6b69b, type: 3}
    - time: 0.525
      value: {fileID: 21300000, guid: 85a43eb2fd86798479bad9190236f89a, type: 3}
    - time: 0.6
      value: {fileID: 21300000, guid: 52237416d769b6a4eb76663d8f87083c, type: 3}
    - time: 0.675
      value: {fileID: 21300000, guid: 7cfc6aa316d3c1d418c873135fd63190, type: 3}
    - time: 0.75
      value: {fileID: 21300000, guid: deee104ab25daa5478a08cc96e411b17, type: 3}
    - time: 0.825
      value: {fileID: 21300000, guid: 6c7672f2094bad94aa31e0a51a6a5459, type: 3}
    - time: 0.9
      value: {fileID: 21300000, guid: 9fb8a718e690ca746b8e1177014c313f, type: 3}
    - time: 0.975
      value: {fileID: 21300000, guid: 756d81ab16a71ac4895f63daa14a2afb, type: 3}
    - time: 1.05
      value: {fileID: 21300000, guid: d315aa7a3ed8e8d479080e7b425ba4e6, type: 3}
    - time: 1.125
      value: {fileID: 21300000, guid: a0b66b5229a19c844aee606d78864d02, type: 3}
    - time: 1.2
      value: {fileID: 21300000, guid: c660f3bd0f65d274c8b06f1f9f9a5e02, type: 3}
    - time: 1.275
      value: {fileID: 21300000, guid: 34bda74e1b91e214ba78919ea1474266, type: 3}
    - time: 1.35
      value: {fileID: 21300000, guid: fb3b419699ab092428f38b74318e4497, type: 3}
    - time: 1.425
      value: {fileID: 21300000, guid: 8124030f70c724d49bc3254aa95f6ee5, type: 3}
    - time: 1.5
      value: {fileID: 21300000, guid: 979c91934b7887e479e13497135899a5, type: 3}
    attribute: m_Sprite
    path: sprite
    classID: 212
    script: {fileID: 0}
  m_SampleRate: 40
  m_WrapMode: 0
  m_Bounds:
    m_Center: {x: 0, y: 0, z: 0}
    m_Extent: {x: 0, y: 0, z: 0}
  m_ClipBindingConstant:
    genericBindings:
    - serializedVersion: 2
      path: 891129758
      attribute: 2086281974
      script: {fileID: 0}
      typeID: 1
      customType: 0
      isPPtrCurve: 0
    - serializedVersion: 2
      path: 891129758
      attribute: 0
      script: {fileID: 0}
      typeID: 212
      customType: 23
      isPPtrCurve: 1
    pptrCurveMapping:
    - {fileID: 21300000, guid: 979c91934b7887e479e13497135899a5, type: 3}
    - {fileID: 21300000, guid: 2232ebb4e35465141aad30722c90dedd, type: 3}
    - {fileID: 21300000, guid: c1097698516e88d47a8967dc0df38da5, type: 3}
    - {fileID: 21300000, guid: be3a01cbe706b1849aa94006200c749e, type: 3}
    - {fileID: 21300000, guid: a8fcca3cdcc44144e9fd42c4d2abada1, type: 3}
    - {fileID: 21300000, guid: a12db6de49c37f44794c55543bec5b4c, type: 3}
    - {fileID: 21300000, guid: bcc37fbd996ecaa4a937b60478a6b69b, type: 3}
    - {fileID: 21300000, guid: 85a43eb2fd86798479bad9190236f89a, type: 3}
    - {fileID: 21300000, guid: 52237416d769b6a4eb76663d8f87083c, type: 3}
    - {fileID: 21300000, guid: 7cfc6aa316d3c1d418c873135fd63190, type: 3}
    - {fileID: 21300000, guid: deee104ab25daa5478a08cc96e411b17, type: 3}
    - {fileID: 21300000, guid: 6c7672f2094bad94aa31e0a51a6a5459, type: 3}
    - {fileID: 21300000, guid: 9fb8a718e690ca746b8e1177014c313f, type: 3}
    - {fileID: 21300000, guid: 756d81ab16a71ac4895f63daa14a2afb, type: 3}
    - {fileID: 21300000, guid: d315aa7a3ed8e8d479080e7b425ba4e6, type: 3}
    - {fileID: 21300000, guid: a0b66b5229a19c844aee606d78864d02, type: 3}
    - {fileID: 21300000, guid: c660f3bd0f65d274c8b06f1f9f9a5e02, type: 3}
    - {fileID: 21300000, guid: 34bda74e1b91e214ba78919ea1474266, type: 3}
    - {fileID: 21300000, guid: fb3b419699ab092428f38b74318e4497, type: 3}
    - {fileID: 21300000, guid: 8124030f70c724d49bc3254aa95f6ee5, type: 3}
    - {fileID: 21300000, guid: 979c91934b7887e479e13497135899a5, type: 3}
  m_AnimationClipSettings:
    serializedVersion: 2
    m_AdditiveReferencePoseClip: {fileID: 0}
    m_AdditiveReferencePoseTime: 0
    m_StartTime: 0
    m_StopTime: 1.525
    m_OrientationOffsetY: 0
    m_Level: 0
    m_CycleOffset: 0
    m_HasAdditiveReferencePose: 0
    m_LoopTime: 0
    m_LoopBlend: 0
    m_LoopBlendOrientation: 0
    m_LoopBlendPositionY: 0
    m_LoopBlendPositionXZ: 0
    m_KeepOriginalOrientation: 0
    m_KeepOriginalPositionY: 1
    m_KeepOriginalPositionXZ: 0
    m_HeightFromFeet: 0
    m_Mirror: 0
  m_EditorCurves:
  - curve:
      serializedVersion: 2
      m_Curve:
      - serializedVersion: 2
        time: 0
        value: 1
        inSlope: Infinity
        outSlope: Infinity
        tangentMode: 103
      - serializedVersion: 2
        time: 1.5
        value: 0
        inSlope: Infinity
        outSlope: Infinity
        tangentMode: 103
      m_PreInfinity: 2
      m_PostInfinity: 2
      m_RotationOrder: 4
    attribute: m_IsActive
    path: sprite
    classID: 1
    script: {fileID: 0}
  m_EulerEditorCurves: []
  m_HasGenericRootTransform: 0
  m_HasMotionFloatCurves: 0
  m_GenerateMotionCurves: 0
  m_Events: []
