%YAML 1.1
%TAG !u! tag:unity3d.com,2011:
--- !u!1045 &1
EditorBuildSettings:
  m_ObjectHideFlags: 0
  serializedVersion: 2
  m_Scenes:
  - enabled: 0
    path: Assets/Oh/Scenes/MapTool.unity
    guid: 6d10733114f4f6043add45468d0895f4
  - enabled: 0
    path: Assets/Oh/Scenes/Title.unity
    guid: c6100161effdff74d9b91bcaf2381dde
  - enabled: 0
    path: Assets/Oh/Scenes/Opening.unity
    guid: 98e23b042077be745b01376443a6e553
  - enabled: 1
    path: Assets/Oh/Scenes/LobbyScene.unity
    guid: 404d5e7efcae0bf4fa8f359e4551f8a5
  - enabled: 1
    path: Assets/Oh/Scenes/BattleScene.unity
    guid: c17455ee6f4f9424986fec1531665f20
  - enabled: 1
    path: Assets/Oh/Scenes/BattleOceanScene.unity
    guid: f1874fb3a916e9b48a790e0857460a3e
  - enabled: 0
    path: Assets/Oh/Scenes/BattleSimulationTool.unity
    guid: fe83dd119e7f3e148b24d742169d2017
