%YAML 1.1
%TAG !u! tag:unity3d.com,2011:
--- !u!74 &7400000
AnimationClip:
  m_ObjectHideFlags: 0
  m_PrefabParentObject: {fileID: 0}
  m_PrefabInternal: {fileID: 0}
  m_Name: Heal
  serializedVersion: 6
  m_Legacy: 0
  m_Compressed: 0
  m_UseHighQualityCurve: 1
  m_RotationCurves: []
  m_CompressedRotationCurves: []
  m_EulerCurves: []
  m_PositionCurves: []
  m_ScaleCurves: []
  m_FloatCurves: []
  m_PPtrCurves:
  - curve:
    - time: 0
      value: {fileID: 21300000, guid: f107811a82dd59a4f9c2870614f14198, type: 3}
    - time: 0.05
      value: {fileID: 21300000, guid: fee50175af5859047a014534154a18f2, type: 3}
    - time: 0.1
      value: {fileID: 21300000, guid: d31e8e9f06d19a0408456c2a89de0dd0, type: 3}
    - time: 0.15
      value: {fileID: 21300000, guid: 9584369bda4f59f40b4a97c0fb4372f5, type: 3}
    - time: 0.2
      value: {fileID: 21300000, guid: 44f650d1df9f7cf4ca5a3507d912a994, type: 3}
    - time: 0.25
      value: {fileID: 21300000, guid: 4b72e9c24800f584fbfbe5e864cbffc9, type: 3}
    - time: 0.3
      value: {fileID: 21300000, guid: a698769ce1c239842980dfa68a7d43f1, type: 3}
    - time: 0.35
      value: {fileID: 21300000, guid: 041537374bdf42d4797540c18029d7e4, type: 3}
    - time: 0.4
      value: {fileID: 21300000, guid: bba28556513b1484ca7b3963910fd4f4, type: 3}
    - time: 0.45
      value: {fileID: 21300000, guid: 38c626ca259089e41804cfaa9fdf6cf5, type: 3}
    - time: 0.5
      value: {fileID: 21300000, guid: 34e062e90f2595c40ae1de85f3d732dc, type: 3}
    - time: 0.55
      value: {fileID: 21300000, guid: d7f0f126bba99244891ebc282376a77a, type: 3}
    - time: 0.6
      value: {fileID: 21300000, guid: 63df2efb5768d354fa5d8f398381cab3, type: 3}
    - time: 0.65
      value: {fileID: 21300000, guid: f5d250622dc2c17419ed1ac703be42da, type: 3}
    - time: 0.7
      value: {fileID: 21300000, guid: e2e4a0e3ad000314a94a13e51db3038c, type: 3}
    - time: 0.75
      value: {fileID: 21300000, guid: 895bff562b850d041abd97b82adbcab6, type: 3}
    - time: 0.8
      value: {fileID: 21300000, guid: 4abfafb6e1da528488bdd3b0db2ed0bb, type: 3}
    - time: 0.85
      value: {fileID: 21300000, guid: 39de6b088c1cdd04d878b22cf934ecac, type: 3}
    - time: 0.9
      value: {fileID: 21300000, guid: e3d2d476aeab740428ba9191c53a2d74, type: 3}
    - time: 0.95
      value: {fileID: 21300000, guid: 63b5616709066a847b958be33920eb15, type: 3}
    - time: 1
      value: {fileID: 21300000, guid: eaa55b089ab4d314092acb162e8c3dc5, type: 3}
    - time: 1.05
      value: {fileID: 21300000, guid: 22de6db18cbfba441a71898423295bac, type: 3}
    - time: 1.1
      value: {fileID: 21300000, guid: af4381bdd2045e0429981e1444f48d86, type: 3}
    attribute: m_Sprite
    path: sprite
    classID: 212
    script: {fileID: 0}
  m_SampleRate: 60
  m_WrapMode: 0
  m_Bounds:
    m_Center: {x: 0, y: 0, z: 0}
    m_Extent: {x: 0, y: 0, z: 0}
  m_ClipBindingConstant:
    genericBindings:
    - serializedVersion: 2
      path: 891129758
      attribute: 0
      script: {fileID: 0}
      typeID: 212
      customType: 23
      isPPtrCurve: 1
    pptrCurveMapping:
    - {fileID: 21300000, guid: f107811a82dd59a4f9c2870614f14198, type: 3}
    - {fileID: 21300000, guid: fee50175af5859047a014534154a18f2, type: 3}
    - {fileID: 21300000, guid: d31e8e9f06d19a0408456c2a89de0dd0, type: 3}
    - {fileID: 21300000, guid: 9584369bda4f59f40b4a97c0fb4372f5, type: 3}
    - {fileID: 21300000, guid: 44f650d1df9f7cf4ca5a3507d912a994, type: 3}
    - {fileID: 21300000, guid: 4b72e9c24800f584fbfbe5e864cbffc9, type: 3}
    - {fileID: 21300000, guid: a698769ce1c239842980dfa68a7d43f1, type: 3}
    - {fileID: 21300000, guid: 041537374bdf42d4797540c18029d7e4, type: 3}
    - {fileID: 21300000, guid: bba28556513b1484ca7b3963910fd4f4, type: 3}
    - {fileID: 21300000, guid: 38c626ca259089e41804cfaa9fdf6cf5, type: 3}
    - {fileID: 21300000, guid: 34e062e90f2595c40ae1de85f3d732dc, type: 3}
    - {fileID: 21300000, guid: d7f0f126bba99244891ebc282376a77a, type: 3}
    - {fileID: 21300000, guid: 63df2efb5768d354fa5d8f398381cab3, type: 3}
    - {fileID: 21300000, guid: f5d250622dc2c17419ed1ac703be42da, type: 3}
    - {fileID: 21300000, guid: e2e4a0e3ad000314a94a13e51db3038c, type: 3}
    - {fileID: 21300000, guid: 895bff562b850d041abd97b82adbcab6, type: 3}
    - {fileID: 21300000, guid: 4abfafb6e1da528488bdd3b0db2ed0bb, type: 3}
    - {fileID: 21300000, guid: 39de6b088c1cdd04d878b22cf934ecac, type: 3}
    - {fileID: 21300000, guid: e3d2d476aeab740428ba9191c53a2d74, type: 3}
    - {fileID: 21300000, guid: 63b5616709066a847b958be33920eb15, type: 3}
    - {fileID: 21300000, guid: eaa55b089ab4d314092acb162e8c3dc5, type: 3}
    - {fileID: 21300000, guid: 22de6db18cbfba441a71898423295bac, type: 3}
    - {fileID: 21300000, guid: af4381bdd2045e0429981e1444f48d86, type: 3}
  m_AnimationClipSettings:
    serializedVersion: 2
    m_AdditiveReferencePoseClip: {fileID: 0}
    m_AdditiveReferencePoseTime: 0
    m_StartTime: 0
    m_StopTime: 1.1166667
    m_OrientationOffsetY: 0
    m_Level: 0
    m_CycleOffset: 0
    m_HasAdditiveReferencePose: 0
    m_LoopTime: 0
    m_LoopBlend: 0
    m_LoopBlendOrientation: 0
    m_LoopBlendPositionY: 0
    m_LoopBlendPositionXZ: 0
    m_KeepOriginalOrientation: 0
    m_KeepOriginalPositionY: 1
    m_KeepOriginalPositionXZ: 0
    m_HeightFromFeet: 0
    m_Mirror: 0
  m_EditorCurves: []
  m_EulerEditorCurves: []
  m_HasGenericRootTransform: 0
  m_HasMotionFloatCurves: 0
  m_GenerateMotionCurves: 0
  m_Events:
  - time: 0.65
    functionName: OnTriggerEvent
    data: 
    objectReferenceParameter: {fileID: 0}
    floatParameter: 0
    intParameter: 0
    messageOptions: 0
  - time: 1.1
    functionName: EndFrame
    data: 
    objectReferenceParameter: {fileID: 0}
    floatParameter: 0
    intParameter: 0
    messageOptions: 0
